%YAML 1.1
%TAG !u! tag:unity3d.com,2011:
--- !u!74 &7400000
AnimationClip:
  m_ObjectHideFlags: 0
  m_CorrespondingSourceObject: {fileID: 0}
  m_PrefabInstance: {fileID: 0}
  m_PrefabAsset: {fileID: 0}
  m_Name: player_dead
  serializedVersion: 6
  m_Legacy: 0
  m_Compressed: 0
  m_UseHighQualityCurve: 1
  m_RotationCurves: []
  m_CompressedRotationCurves: []
  m_EulerCurves: []
  m_PositionCurves: []
  m_ScaleCurves: []
  m_FloatCurves: []
  m_PPtrCurves:
  - curve:
    - time: 0
      value: {fileID: -6276740940018014436, guid: b14a3c02948de1343a62acdcfc61440d,
        type: 3}
    - time: 0.13333334
      value: {fileID: 3730428872026013724, guid: b14a3c02948de1343a62acdcfc61440d,
        type: 3}
    - time: 0.26666668
      value: {fileID: -1871480182136569439, guid: b14a3c02948de1343a62acdcfc61440d,
        type: 3}
    - time: 0.4
      value: {fileID: 7879160192275243311, guid: b14a3c02948de1343a62acdcfc61440d,
        type: 3}
    - time: 0.53333336
      value: {fileID: -1506778517376254606, guid: b14a3c02948de1343a62acdcfc61440d,
        type: 3}
    - time: 0.6666667
      value: {fileID: 2179245280149819804, guid: b14a3c02948de1343a62acdcfc61440d,
        type: 3}
    attribute: m_Sprite
    path: 
    classID: 212
    script: {fileID: 0}
  m_SampleRate: 15
  m_WrapMode: 0
  m_Bounds:
    m_Center: {x: 0, y: 0, z: 0}
    m_Extent: {x: 0, y: 0, z: 0}
  m_ClipBindingConstant:
    genericBindings:
    - serializedVersion: 2
      path: 0
      attribute: 0
      script: {fileID: 0}
      typeID: 212
      customType: 23
      isPPtrCurve: 1
    pptrCurveMapping:
    - {fileID: -6276740940018014436, guid: b14a3c02948de1343a62acdcfc61440d, type: 3}
    - {fileID: 3730428872026013724, guid: b14a3c02948de1343a62acdcfc61440d, type: 3}
    - {fileID: -1871480182136569439, guid: b14a3c02948de1343a62acdcfc61440d, type: 3}
    - {fileID: 7879160192275243311, guid: b14a3c02948de1343a62acdcfc61440d, type: 3}
    - {fileID: -1506778517376254606, guid: b14a3c02948de1343a62acdcfc61440d, type: 3}
    - {fileID: 2179245280149819804, guid: b14a3c02948de1343a62acdcfc61440d, type: 3}
  m_AnimationClipSettings:
    serializedVersion: 2
    m_AdditiveReferencePoseClip: {fileID: 0}
    m_AdditiveReferencePoseTime: 0
    m_StartTime: 0
    m_StopTime: 0.73333335
    m_OrientationOffsetY: 0
    m_Level: 0
    m_CycleOffset: 0
    m_HasAdditiveReferencePose: 0
    m_LoopTime: 1
    m_LoopBlend: 0
    m_LoopBlendOrientation: 0
    m_LoopBlendPositionY: 0
    m_LoopBlendPositionXZ: 0
    m_KeepOriginalOrientation: 0
    m_KeepOriginalPositionY: 1
    m_KeepOriginalPositionXZ: 0
    m_HeightFromFeet: 0
    m_Mirror: 0
  m_EditorCurves: []
  m_EulerEditorCurves: []
  m_HasGenericRootTransform: 0
  m_HasMotionFloatCurves: 0
  m_Events:
  - time: 0
    functionName: audioOnDead
    data: 
    objectReferenceParameter: {fileID: 0}
    floatParameter: 0
    intParameter: 0
    messageOptions: 0
  - time: 0.6666667
    functionName: isdead
    data: 
    objectReferenceParameter: {fileID: 0}
    floatParameter: 0
    intParameter: 0
    messageOptions: 0
