%YAML 1.1
%TAG !u! tag:unity3d.com,2011:
--- !u!114 &11400000
MonoBehaviour:
  m_ObjectHideFlags: 0
  m_CorrespondingSourceObject: {fileID: 0}
  m_PrefabInstance: {fileID: 0}
  m_PrefabAsset: {fileID: 0}
  m_GameObject: {fileID: 0}
  m_Enabled: 1
  m_EditorHideFlags: 0
  m_Script: {fileID: 11500000, guid: 09f43e75515495b459c13fc61604b29f, type: 3}
  m_Name: player1
  m_EditorClassIdentifier: 
  name: Joe
  health: 100
  damage: 20
  patternMove: 0100000009000000fffffffff7ffffff
  patternAttack: 010000000a0000000900000008000000fffffffff6fffffff7fffffff8ffffff
  moveRange: 2
  attackRange: 1
